…
data(okc_text)

example_data <- okc_text[, 1]

okc_rec <- recipe(~ ., data = example_data) %>%
  step_tokenize(essay0) %>% # Tokenizes to words by default
  step_stopwords(essay0) %>% # Uses the english snowball list by default
  step_tokenfilter(essay0, max.words = 500) %>%
  step_tfidf(essay0, tf.weight = "term frequency", idf.weight = "idf")
   
okc_obj <- okc_rec %>%
  prep(training = example_data, retain = TRUE)
   
bake(okc_obj, example_data)
#> # A tibble: 750 x 500
#>    `tfidf-essay0-2` `tfidf-essay0-2… `tfidf-essay0-3` `tfidf-essay0-4`
#>               <dbl>            <dbl>            <dbl>            <dbl>
#>  1           0                0                0                     0
#>  2           0                0                0                     0
#>  3           0                0                0                     0
#>  4           0                0                0                     0
#>  5           0                0                0                     0
#>  6           0                0                0                     0
#>  7           0                0.0364           0.0349                0
#>  8           0                0                0                     0
#>  9           0                0                0                     0
#> 10           0.0196           0.0224           0                     0
#> # ... with 740 more rows, and 496 more variables: `tfidf-essay0-5` <dbl>,
#> #   `tfidf-essay0-able` <dbl>, `tfidf-essay0-active` <dbl>,
#> #   `tfidf-essay0-activities` <dbl>, `tfidf-essay0-actually` <dbl>,
#> #   `tfidf-essay0-admit` <dbl>, `tfidf-essay0-adventure` <dbl>,
#> #   `tfidf-essay0-adventures` <dbl>, `tfidf-essay0-adventurous` <dbl>,
#> #   `tfidf-essay0-afraid` <dbl>, `tfidf-essay0-age` <dbl>,
#> #   `tfidf-essay0-ago` <dbl>, `tfidf-essay0-almost` <dbl>,
#> #   `tfidf-essay0-along` <dbl>, `tfidf-essay0-also` <dbl>,
#> #   `tfidf-essay0-although` <dbl>, `tfidf-essay0-always` <dbl>,
…
