Cookbook - Using more complex recipes involving text • textrecipes
…
words <- c("or", "and", "on")

okc_rec <- recipe(~., data = tate_text) %>%
  step_tokenize(medium) %>%
  step_stopwords(medium, custom_stopword_source = words, keep = TRUE) %>%
  step_tf(medium)

okc_obj <- okc_rec %>%
  prep()

bake(okc_obj, tate_text) %>%
  select(starts_with("tf_medium"))
#> # A tibble: 4,284 × 3
#>    tf_medium_and tf_medium_on tf_medium_or
#>            <int>        <int>        <int>
#>  1             1            0            1
#>  2             0            1            0
#>  3             0            1            0
#>  4             0            1            0
#>  5             0            1            0
#>  6             0            1            0
#>  7             0            1            0
#>  8             0            1            0
#>  9             1            1            0
#> 10             0            1            0
#> # ℹ 4,274 more rows
…
words <- c("sad", "happy")

okc_rec <- recipe(~., data = tate_text) %>%
  step_tokenize(medium) %>%
  step_stopwords(medium, custom_stopword_source = stopwords_list) %>%
  step_stopwords(medium, custom_stopword_source = words) %>%
  step_tfidf(medium)

okc_obj <- okc_rec %>%
  prep()

bake(okc_obj, tate_text) %>%
  select(starts_with("tfidf_medium"))
#> # A tibble: 4,284 × 951
#>    tfidf_medium_1 tfidf_medium_10 tfidf_medium_100 tfidf_medium_11
#>             <dbl>           <dbl>            <dbl>           <dbl>
#>  1              0               0                0               0
#>  2              0               0                0               0
#>  3              0               0                0               0
#>  4              0               0                0               0
#>  5              0               0                0               0
#>  6              0               0                0               0
#>  7              0               0                0               0
#>  8              0               0                0               0
#>  9              0               0                0               0
#> 10              0               0                0               0
#> # ℹ 4,274 more rows
#> # ℹ 947 more variables: tfidf_medium_12 <dbl>, tfidf_medium_13 <dbl>,
#> #   tfidf_medium_133 <dbl>, tfidf_medium_14 <dbl>,
#> #   tfidf_medium_15 <dbl>, tfidf_medium_151 <dbl>,
#> #   tfidf_medium_16 <dbl>, tfidf_medium_160 <dbl>,
#> #   tfidf_medium_16mm <dbl>, tfidf_medium_18 <dbl>,
#> #   tfidf_medium_19 <dbl>, tfidf_medium_2 <dbl>, …
…
okc_rec <- recipe(~., data = tate_text) %>%
  step_tokenize(medium, token = "characters") %>%
  step_stopwords(medium, custom_stopword_source = letters, keep = TRUE) %>%
  step_tf(medium)

okc_obj <- okc_rec %>%
  prep()

bake(okc_obj, tate_text) %>%
  select(starts_with("tf_medium"))
#> # A tibble: 4,284 × 26
#>    tf_medium_a tf_medium_b tf_medium_c tf_medium_d tf_medium_e
#>          <int>       <int>       <int>       <int>       <int>
#>  1           1           0           2           3           4
#>  2           1           0           1           0           2
#>  3           1           0           1           0           2
#>  4           1           0           1           0           2
#>  5           3           0           1           0           0
#>  6           3           0           1           0           0
#>  7           3           0           2           0           1
#>  8           1           0           1           1           1
#>  9           5           0           1           1           0
#> 10           1           0           0           0           1
#> # ℹ 4,274 more rows
#> # ℹ 21 more variables: tf_medium_f <int>, tf_medium_g <int>,
#> #   tf_medium_h <int>, tf_medium_i <int>, tf_medium_j <int>,
#> #   tf_medium_k <int>, tf_medium_l <int>, tf_medium_m <int>,
#> #   tf_medium_n <int>, tf_medium_o <int>, tf_medium_p <int>,
#> #   tf_medium_q <int>, tf_medium_r <int>, tf_medium_s <int>,
#> #   tf_medium_t <int>, tf_medium_u <int>, tf_medium_v <int>, …
…
okc_rec <- recipe(~., data = tate_text) %>%
  step_tokenize(medium, token = "words") %>%
  step_stem(medium) %>%
  step_untokenize(medium) %>%
  step_tokenize(medium, token = "ngrams") %>%
  step_tokenfilter(medium, max_tokens = 500) %>%
  step_tfidf(medium)

okc_obj <- okc_rec %>%
  prep()

bake(okc_obj, tate_text) %>%
  select(starts_with("tfidf_medium"))
#> # A tibble: 4,284 × 499
#>    tfidf_medium_100 dig…¹ tfidf_medium_16 mm b…² tfidf_medium_16 mm p…³
#>                     <dbl>                  <dbl>                  <dbl>
#>  1                      0                      0                      0
#>  2                      0                      0                      0
#>  3                      0                      0                      0
#>  4                      0                      0                      0
#>  5                      0                      0                      0
#>  6                      0                      0                      0
#>  7                      0                      0                      0
#>  8                      0                      0                      0
#>  9                      0                      0                      0
#> 10                      0                      0                      0
#> # ℹ 4,274 more rows
#> # ℹ abbreviated names: ¹​`tfidf_medium_100 digit print`,
#> #   ²​`tfidf_medium_16 mm black`, ³​`tfidf_medium_16 mm project`
#> # ℹ 496 more variables: `tfidf_medium_16 mm shown` <dbl>,
#> #   `tfidf_medium_16mm shown a` <dbl>,
#> #   `tfidf_medium_2 aluminium panel` <dbl>,
#> #   `tfidf_medium_2 digit print` <dbl>, …
…
