Basic Recipes
…
Note that the real variables are listed (e.g. Home etc.) instead of the selectors (all_predictors()).

Now that the statistics have been estimated, the preprocessing can be applied to the training and test set:

train_data <- bake(trained_rec, new_data = credit_train)
test_data  <- bake(trained_rec, new_data = credit_test)

bake returns a tibble that, by default, includes all of the variables:

class(test_data)
#> [1] "tbl_df"     "tbl"        "data.frame"
test_data
#> # A tibble: 1,113 x 23
#>    Status Seniority   Time      Age Expenses   Income  Assets    Debt
#>    <fct>      <dbl>  <dbl>    <dbl>    <dbl>    <dbl>   <dbl>   <dbl>
#>  1 good      -0.987  0.938 -1.19       0.376  0.497   -0.243  -0.275 
#>  2 good      -0.987 -0.724 -1.01      -0.499 -0.447   -0.457  -0.275 
#>  3 good      -0.987  0.938 -0.464      1.76  -0.447    0.827  -0.275 
#>  4 good       1.36  -0.724 -0.00678    0.993  0.346   -0.157  -0.0739
#>  5 bad       -0.740  0.938 -1.10      -0.499 -0.447   -0.457  -0.275 
#>  6 bad       -0.864  0.938  0.724      2.54  -0.384   -0.285   0.112 
#>  7 good       2.23   0.938  1.27      -0.550  0.00644 -0.157  -0.275 
#>  8 good       1.36   0.938  0.541      0.993  0.472   -0.114  -0.275 
#>  9 bad       -0.616 -1.56  -1.29       0.993 -0.723   -0.0287 -0.275 
#> 10 good       2.97  -1.56   2.28      -0.550 -0.296    0.271  -0.275 
#> # ... with 1,103 more rows, and 15 more variables: Amount <dbl>,
#> #   Price <dbl>, Home_X1 <dbl>, Home_X2 <dbl>, Home_X3 <dbl>,
#> #   Home_X4 <dbl>, Home_X5 <dbl>, Marital_X1 <dbl>, Marital_X2 <dbl>,
#> #   Marital_X3 <dbl>, Marital_X4 <dbl>, Records_X1 <dbl>, Job_X1 <dbl>,
#> #   Job_X2 <dbl>, Job_X3 <dbl>
…
