…
tidy(tate_rec, number = 1)
#> # A tibble: 1 × 3
#>   terms  functions id               
#>   <chr>  <chr>     <chr>            
#> 1 medium NA        textfeature_E5zNw
tidy(tate_obj, number = 1)
#> # A tibble: 26 × 3
#>    terms  functions     id               
#>    <chr>  <chr>         <chr>            
#>  1 medium n_words       textfeature_E5zNw
#>  2 medium n_uq_words    textfeature_E5zNw
#>  3 medium n_charS       textfeature_E5zNw
#>  4 medium n_uq_charS    textfeature_E5zNw
#>  5 medium n_digits      textfeature_E5zNw
#>  6 medium n_hashtags    textfeature_E5zNw
#>  7 medium n_uq_hashtags textfeature_E5zNw
#>  8 medium n_mentions    textfeature_E5zNw
#>  9 medium n_uq_mentions textfeature_E5zNw
#> 10 medium n_commas      textfeature_E5zNw
#> # ℹ 16 more rows

# Using custom extraction functions
nchar_round_10 <- function(x) round(nchar(x) / 10) * 10

recipe(~., data = tate_text) |>
  step_textfeature(medium,
    extract_functions = list(nchar10 = nchar_round_10)
  ) |>
  prep() |>
  bake(new_data = NULL)
#> # A tibble: 4,284 × 5
#>        id artist             title          year textfeature_medium_n…¹
#>     <dbl> <fct>              <fct>         <dbl>                  <dbl>
#>  1  21926 Absalon            Proposals fo…  1990                     60
#>  2  20472 Auerbach, Frank    Michael        1990                     20
#>  3  20474 Auerbach, Frank    Geoffrey       1990                     20
#>  4  20473 Auerbach, Frank    Jake           1990                     20
#>  5  20513 Auerbach, Frank    To the Studi…  1990                     20
#>  6  21389 Ayres, OBE Gillian Phaëthon       1990                     20
#>  7 121187 Barlow, Phyllida   Untitled       1990                     20
#>  8  19455 Baselitz, Georg    Green VIII     1990                     20
#>  9  20938 Beattie, Basil     Present Bound  1990                     30
#> 10 105941 Beuys, Joseph      Joseph Beuys…  1990                     10
#> # ℹ 4,274 more rows
#> # ℹ abbreviated name: ¹​textfeature_medium_nchar10
```
