…
bake(rec, air_tr)
#> # A tibble: 100 × 6
#>    ozone solar_r  wind  temp month   day
#>    <int>   <int> <dbl> <int> <int> <int>
#>  1    41     190   7.4    67     5     1
#>  2    36     118   8      72     5     2
#>  3    12     149  12.6    74     5     3
#>  4    18     313  11.5    62     5     4
#>  5    NA      NA  14.3    56     5     5
#>  6    28      NA  14.9    66     5     6
#>  7    23     299   8.6    65     5     7
#>  8    19      99  13.8    59     5     8
#>  9     8      19  20.1    61     5     9
#> 10    NA     194   8.6    69     5    10
#> # ℹ 90 more rows
bake(rec, air_te)
#> # A tibble: 53 × 6
#>    ozone solar_r  wind  temp month   day
#>    <int>   <int> <dbl> <int> <int> <int>
#>  1   110     207   8      90     8     9
#>  2    NA     222   8.6    92     8    10
#>  3    NA     137  11.5    86     8    11
#>  4    44     192  11.5    86     8    12
#>  5    28     273  11.5    82     8    13
#>  6    65     157   9.7    80     8    14
#>  7    NA      64  11.5    79     8    15
#>  8    22      71  10.3    77     8    16
#>  9    59      51   6.3    79     8    17
#> 10    23     115   7.4    76     8    18
#> # ℹ 43 more rows
```
