Generate the basic set of text features — step_sequence_onehot • textrecipes
…
library(recipes)
library(modeldata)
data(tate_text)

tate_rec <- recipe(~medium, data = tate_text) %>%
  step_tokenize(medium) %>%
  step_tokenfilter(medium) %>%
  step_sequence_onehot(medium)

tate_obj <- tate_rec %>%
  prep()

bake(tate_obj, new_data = NULL)
#> # A tibble: 4,284 × 100
#>    seq1hot_medium_1 seq1hot_medium_2 seq1hot_medium_3 seq1hot_medium_4
#>               <dbl>            <dbl>            <dbl>            <dbl>
#>  1                0                0                0                0
#>  2                0                0                0                0
#>  3                0                0                0                0
#>  4                0                0                0                0
#>  5                0                0                0                0
#>  6                0                0                0                0
#>  7                0                0                0                0
#>  8                0                0                0                0
#>  9                0                0                0                0
#> 10                0                0                0                0
#> # … with 4,274 more rows, and 96 more variables: seq1hot_medium_5 <dbl>,
#> #   seq1hot_medium_6 <dbl>, seq1hot_medium_7 <dbl>, seq1hot_medium_8 <dbl>,
#> #   seq1hot_medium_9 <dbl>, seq1hot_medium_10 <dbl>, seq1hot_medium_11 <dbl>,
#> #   seq1hot_medium_12 <dbl>, seq1hot_medium_13 <dbl>, seq1hot_medium_14 <dbl>,
#> #   seq1hot_medium_15 <dbl>, seq1hot_medium_16 <dbl>, seq1hot_medium_17 <dbl>,
#> #   seq1hot_medium_18 <dbl>, seq1hot_medium_19 <dbl>, seq1hot_medium_20 <dbl>,
#> #   seq1hot_medium_21 <dbl>, seq1hot_medium_22 <dbl>, …
…
