…
``` r
library(recipes)
library(modeldata)
data(tate_text)

tate_rec <- recipe(~., data = tate_text) |>
  step_tokenize(medium, artist) |>
  step_tokenmerge(medium, artist)

tate_obj <- tate_rec |>
  prep()

bake(tate_obj, new_data = NULL)
#> # A tibble: 4,284 × 4
#>        id title                                         year tokenmerge
#>     <dbl> <fct>                                        <dbl>  <tknlist>
#>  1  21926 Proposals for a Habitat                       1990 [9 tokens]
#>  2  20472 Michael                                       1990 [5 tokens]
#>  3  20474 Geoffrey                                      1990 [5 tokens]
#>  4  20473 Jake                                          1990 [5 tokens]
#>  5  20513 To the Studios                                1990 [6 tokens]
#>  6  21389 Phaëthon                                      1990 [7 tokens]
#>  7 121187 Untitled                                      1990 [6 tokens]
#>  8  19455 Green VIII                                    1990 [5 tokens]
#>  9  20938 Present Bound                                 1990 [8 tokens]
#> 10 105941 Joseph Beuys: A Private Collection. A11 Art…  1990 [5 tokens]
#> # ℹ 4,274 more rows
…
