Term frequency-inverse document frequency of tokens — step_tfidf • textrecipes
…
# \donttest{
library(recipes)
library(modeldata)
data(tate_text)

tate_rec <- recipe(~., data = tate_text) %>%
  step_tokenize(medium) %>%
  step_tfidf(medium)

tate_obj <- tate_rec %>%
  prep()

bake(tate_obj, tate_text)

#> # A tibble: 4,284 × 956
#>        id artist             title  year tfidf_medium_1 tfidf_medium_10 tfidf_medium_100
#>     <dbl> <fct>              <fct> <dbl>          <dbl>           <dbl>            <dbl>
#>  1  21926 Absalon            Prop…  1990              0               0                0
#>  2  20472 Auerbach, Frank    Mich…  1990              0               0                0
#>  3  20474 Auerbach, Frank    Geof…  1990              0               0                0
#>  4  20473 Auerbach, Frank    Jake   1990              0               0                0
#>  5  20513 Auerbach, Frank    To t…  1990              0               0                0
#>  6  21389 Ayres, OBE Gillian Phaë…  1990              0               0                0
#>  7 121187 Barlow, Phyllida   Unti…  1990              0               0                0
#>  8  19455 Baselitz, Georg    Gree…  1990              0               0                0
#>  9  20938 Beattie, Basil     Pres…  1990              0               0                0
#> 10 105941 Beuys, Joseph      Jose…  1990              0               0                0
#> # … with 4,274 more rows, and 949 more variables: tfidf_medium_11 <dbl>,
#> #   tfidf_medium_12 <dbl>, tfidf_medium_13 <dbl>, tfidf_medium_133 <dbl>,
#> #   tfidf_medium_14 <dbl>, tfidf_medium_15 <dbl>, tfidf_medium_151 <dbl>,
#> #   tfidf_medium_16 <dbl>, tfidf_medium_160 <dbl>, tfidf_medium_16mm <dbl>,
#> #   tfidf_medium_18 <dbl>, tfidf_medium_19 <dbl>, tfidf_medium_2 <dbl>,
#> #   tfidf_medium_20 <dbl>, tfidf_medium_2000 <dbl>, tfidf_medium_201 <dbl>,
#> #   tfidf_medium_21 <dbl>, tfidf_medium_22 <dbl>, tfidf_medium_220 <dbl>, …
…
