…
``` r
# \donttest{
library(recipes)
library(modeldata)
data(tate_text)

tate_rec <- recipe(~., data = tate_text) |>
  step_tokenize(medium) |>
  step_tfidf(medium)

tate_obj <- tate_rec |>
  prep()

bake(tate_obj, tate_text)
#> # A tibble: 4,284 × 956
#>        id artist             title  year tfidf_medium_1 tfidf_medium_10
#>     <dbl> <fct>              <fct> <dbl>          <dbl>           <dbl>
#>  1  21926 Absalon            Prop…  1990              0               0
#>  2  20472 Auerbach, Frank    Mich…  1990              0               0
#>  3  20474 Auerbach, Frank    Geof…  1990              0               0
#>  4  20473 Auerbach, Frank    Jake   1990              0               0
#>  5  20513 Auerbach, Frank    To t…  1990              0               0
#>  6  21389 Ayres, OBE Gillian Phaë…  1990              0               0
#>  7 121187 Barlow, Phyllida   Unti…  1990              0               0
#>  8  19455 Baselitz, Georg    Gree…  1990              0               0
#>  9  20938 Beattie, Basil     Pres…  1990              0               0
#> 10 105941 Beuys, Joseph      Jose…  1990              0               0
#> # ℹ 4,274 more rows
#> # ℹ 950 more variables: tfidf_medium_100 <dbl>, tfidf_medium_11 <dbl>,
#> #   tfidf_medium_12 <dbl>, tfidf_medium_13 <dbl>,
#> #   tfidf_medium_133 <dbl>, tfidf_medium_14 <dbl>,
#> #   tfidf_medium_15 <dbl>, tfidf_medium_151 <dbl>,
#> #   tfidf_medium_16 <dbl>, tfidf_medium_160 <dbl>,
#> #   tfidf_medium_16mm <dbl>, tfidf_medium_18 <dbl>, …

tidy(tate_rec, number = 2)
#> # A tibble: 1 × 4
#>   terms  token weight id         
#>   <chr>  <chr>  <dbl> <chr>      
#> 1 medium NA        NA tfidf_nDoh2
tidy(tate_obj, number = 2)
#> # A tibble: 952 × 4
#>    terms  token weight id         
#>    <chr>  <chr>  <dbl> <chr>      
#>  1 medium 1       7.26 tfidf_nDoh2
#>  2 medium 10      7.26 tfidf_nDoh2
#>  3 medium 100     7.26 tfidf_nDoh2
#>  4 medium 11      7.67 tfidf_nDoh2
#>  5 medium 12      7.67 tfidf_nDoh2
#>  6 medium 13      8.36 tfidf_nDoh2
#>  7 medium 133     8.36 tfidf_nDoh2
#>  8 medium 14      6.75 tfidf_nDoh2
#>  9 medium 15      6.57 tfidf_nDoh2
#> 10 medium 151     8.36 tfidf_nDoh2
#> # ℹ 942 more rows
…
