…
library(recipes)
library(modeldata)
data(grants)

grants_rec <- recipe(~sponsor_code, data = grants_other) |>
  step_dummy_hash(sponsor_code)

grants_obj <- grants_rec |>
  prep()

bake(grants_obj, grants_test)
#> # A tibble: 518 × 32
#>    dummyhash_sponsor_co…¹ dummyhash_sponsor_co…² dummyhash_sponsor_co…³
#>                     <int>                  <int>                  <int>
#>  1                      0                      0                      0
#>  2                      0                      0                      0
#>  3                      0                      0                      0
#>  4                      0                      1                      0
#>  5                      0                      0                      0
#>  6                      0                      1                      0
#>  7                      0                      0                      0
#>  8                      0                      0                      0
#>  9                      0                      0                      0
#> 10                      0                      1                      0
#> # ℹ 508 more rows
#> # ℹ abbreviated names: ¹​dummyhash_sponsor_code_01,
#> #   ²​dummyhash_sponsor_code_02, ³​dummyhash_sponsor_code_03
#> # ℹ 29 more variables: dummyhash_sponsor_code_04 <int>,
#> #   dummyhash_sponsor_code_05 <int>, dummyhash_sponsor_code_06 <int>,
#> #   dummyhash_sponsor_code_07 <int>, dummyhash_sponsor_code_08 <int>,
#> #   dummyhash_sponsor_code_09 <int>, …
…
