…
``` r
# \donttest{
library(recipes)
library(modeldata)
data(tate_text)

tate_rec <- recipe(~., data = tate_text) |>
  step_tokenize(medium) |>
  step_tf(medium)

tate_obj <- tate_rec |>
  prep()

bake(tate_obj, tate_text)
#> # A tibble: 4,284 × 956
#>        id artist     title  year tf_medium_1 tf_medium_10 tf_medium_100
#>     <dbl> <fct>      <fct> <dbl>       <int>        <int>         <int>
#>  1  21926 Absalon    Prop…  1990           0            0             0
#>  2  20472 Auerbach,… Mich…  1990           0            0             0
#>  3  20474 Auerbach,… Geof…  1990           0            0             0
#>  4  20473 Auerbach,… Jake   1990           0            0             0
#>  5  20513 Auerbach,… To t…  1990           0            0             0
#>  6  21389 Ayres, OB… Phaë…  1990           0            0             0
#>  7 121187 Barlow, P… Unti…  1990           0            0             0
#>  8  19455 Baselitz,… Gree…  1990           0            0             0
#>  9  20938 Beattie, … Pres…  1990           0            0             0
#> 10 105941 Beuys, Jo… Jose…  1990           0            0             0
#> # ℹ 4,274 more rows
#> # ℹ 949 more variables: tf_medium_11 <int>, tf_medium_12 <int>,
#> #   tf_medium_13 <int>, tf_medium_133 <int>, tf_medium_14 <int>,
#> #   tf_medium_15 <int>, tf_medium_151 <int>, tf_medium_16 <int>,
#> #   tf_medium_160 <int>, tf_medium_16mm <int>, tf_medium_18 <int>,
#> #   tf_medium_19 <int>, tf_medium_2 <int>, tf_medium_20 <int>,
#> #   tf_medium_2000 <int>, tf_medium_201 <int>, tf_medium_21 <int>, …
…
