Generate the basic set of text features — step_textfeature • textrecipes
…
  tidy(tate_rec, number = 1)
  tidy(tate_obj, number = 1)

  # Using custom extraction functions
  nchar_round_10 <- function(x) round(nchar(x) / 10) * 10

  recipe(~., data = tate_text) %>%
    step_textfeature(medium,
      extract_functions = list(nchar10 = nchar_round_10)
    ) %>%
    prep() %>%
    bake(new_data = NULL)
}
#> # A tibble: 4,284 × 5
#>        id artist             title                      year textfeature_medium…
#>     <dbl> <fct>              <fct>                     <dbl>               <dbl>
#>  1  21926 Absalon            Proposals for a Habitat    1990                  60
#>  2  20472 Auerbach, Frank    Michael                    1990                  20
#>  3  20474 Auerbach, Frank    Geoffrey                   1990                  20
#>  4  20473 Auerbach, Frank    Jake                       1990                  20
#>  5  20513 Auerbach, Frank    To the Studios             1990                  20
#>  6  21389 Ayres, OBE Gillian Phaëthon                   1990                  20
#>  7 121187 Barlow, Phyllida   Untitled                   1990                  20
#>  8  19455 Baselitz, Georg    Green VIII                 1990                  20
#>  9  20938 Beattie, Basil     Present Bound              1990                  30
#> 10 105941 Beuys, Joseph      Joseph Beuys: A Private …  1990                  10
#> # … with 4,274 more rows
…
