…
``` r
library(recipes)
library(modeldata)
data(tate_text)

tate_rec <- recipe(~., data = tate_text) |>
  step_tokenize(medium) |>
  step_tokenfilter(medium, max_tokens = 10) |>
  step_texthash(medium)

tate_obj <- tate_rec |>
  prep()

bake(tate_obj, tate_text)
#> # A tibble: 4,284 × 1,028
#>        id artist  title  year texthash_medium_0001 texthash_medium_0002
#>     <dbl> <fct>   <fct> <dbl>                <int>                <int>
#>  1  21926 Absalon Prop…  1990                    0                    0
#>  2  20472 Auerba… Mich…  1990                    0                    0
#>  3  20474 Auerba… Geof…  1990                    0                    0
#>  4  20473 Auerba… Jake   1990                    0                    0
#>  5  20513 Auerba… To t…  1990                    0                    0
#>  6  21389 Ayres,… Phaë…  1990                    0                    0
#>  7 121187 Barlow… Unti…  1990                    0                    0
#>  8  19455 Baseli… Gree…  1990                    0                    0
#>  9  20938 Beatti… Pres…  1990                    0                    0
#> 10 105941 Beuys,… Jose…  1990                    0                    0
#> # ℹ 4,274 more rows
#> # ℹ 1,022 more variables: texthash_medium_0003 <int>,
#> #   texthash_medium_0004 <int>, texthash_medium_0005 <int>,
#> #   texthash_medium_0006 <int>, texthash_medium_0007 <int>,
#> #   texthash_medium_0008 <int>, texthash_medium_0009 <int>,
#> #   texthash_medium_0010 <int>, texthash_medium_0011 <int>,
#> #   texthash_medium_0012 <int>, texthash_medium_0013 <int>, …
…
