Feature Hashing of Tokens — step_texthash • textrecipes
…
library(recipes)
library(modeldata)
data(tate_text)

tate_rec <- recipe(~., data = tate_text) %>%
  step_tokenize(medium) %>%
  step_tokenfilter(medium, max_tokens = 10) %>%
  step_texthash(medium)

tate_obj <- tate_rec %>%
  prep()

bake(tate_obj, tate_text)
#> # A tibble: 4,284 × 1,028
#>    texthash_medium_0001 texthash_medium_0002 texthash_medium_0003
#>                   <int>                <int>                <int>
#>  1                    0                    0                    0
#>  2                    0                    0                    0
#>  3                    0                    0                    0
#>  4                    0                    0                    0
#>  5                    0                    0                    0
#>  6                    0                    0                    0
#>  7                    0                    0                    0
#>  8                    0                    0                    0
#>  9                    0                    0                    0
#> 10                    0                    0                    0
#> # ℹ 4,274 more rows
#> # ℹ 1,025 more variables: texthash_medium_0004 <int>,
#> #   texthash_medium_0005 <int>, texthash_medium_0006 <int>,
#> #   texthash_medium_0007 <int>, texthash_medium_0008 <int>,
#> #   texthash_medium_0009 <int>, texthash_medium_0010 <int>,
#> #   texthash_medium_0011 <int>, texthash_medium_0012 <int>,
#> #   texthash_medium_0013 <int>, texthash_medium_0014 <int>, …
…
