…
``` r
library(recipes)
library(modeldata)
data(tate_text)

tate_rec <- recipe(~medium, data = tate_text) |>
  step_tokenize(medium) |>
  step_tokenfilter(medium) |>
  step_sequence_onehot(medium)

tate_obj <- tate_rec |>
  prep()

bake(tate_obj, new_data = NULL)
#> # A tibble: 4,284 × 100
#>    seq1hot_medium_1 seq1hot_medium_2 seq1hot_medium_3 seq1hot_medium_4
#>               <int>            <int>            <int>            <int>
#>  1                0                0                0                0
#>  2                0                0                0                0
#>  3                0                0                0                0
#>  4                0                0                0                0
#>  5                0                0                0                0
#>  6                0                0                0                0
#>  7                0                0                0                0
#>  8                0                0                0                0
#>  9                0                0                0                0
#> 10                0                0                0                0
#> # ℹ 4,274 more rows
#> # ℹ 96 more variables: seq1hot_medium_5 <int>, seq1hot_medium_6 <int>,
#> #   seq1hot_medium_7 <int>, seq1hot_medium_8 <int>,
#> #   seq1hot_medium_9 <int>, seq1hot_medium_10 <int>,
#> #   seq1hot_medium_11 <int>, seq1hot_medium_12 <int>,
#> #   seq1hot_medium_13 <int>, seq1hot_medium_14 <int>,
#> #   seq1hot_medium_15 <int>, seq1hot_medium_16 <int>, …

tidy(tate_rec, number = 3)
#> # A tibble: 1 × 4
#>   terms  vocabulary token id                   
#>   <chr>  <chr>      <int> <chr>                
#> 1 medium NA            NA sequence_onehot_dw9eV
tidy(tate_obj, number = 3)
#> # A tibble: 100 × 4
#>    terms  vocabulary token     id                   
#>    <chr>       <int> <chr>     <chr>                
#>  1 medium          1 16        sequence_onehot_dw9eV
#>  2 medium          2 2         sequence_onehot_dw9eV
#>  3 medium          3 3         sequence_onehot_dw9eV
#>  4 medium          4 35        sequence_onehot_dw9eV
#>  5 medium          5 4         sequence_onehot_dw9eV
#>  6 medium          6 5         sequence_onehot_dw9eV
#>  7 medium          7 6         sequence_onehot_dw9eV
#>  8 medium          8 8         sequence_onehot_dw9eV
#>  9 medium          9 acrylic   sequence_onehot_dw9eV
#> 10 medium         10 aluminium sequence_onehot_dw9eV
#> # ℹ 90 more rows
```
