Term frequency of tokens — step_tf • textrecipes
…
    Examples

library(recipes)

data(okc_text)

okc_rec <- recipe(~ ., data = okc_text) %>%
  step_tokenize(essay0) %>%
  step_tf(essay0)

okc_obj <- okc_rec %>%
  prep(training = okc_text, retain = TRUE)

bake(okc_obj, okc_text)
#> # A tibble: 750 x 9,265
#>    essay1 essay2 essay3 essay4 essay5 essay6 essay7 essay8 essay9
#>    <fct>  <fct>  <fct>  <fct>  <fct>  <fct>  <fct>  <fct>  <fct> 
#>  1 "i ju… "writ… "that… "musi… "frie… "roma… "usua… "i ha… "you'…
#>  2 eatin… "pick… "i lo… "non-… "dese… "ever… makin… this … "you'…
#>  3 "rais… "proc… "my s… "sush… "my c… "movi… "at h… "on m… "you …
#>  4 "i ju… "i've… my fa… "nove… "fami… how t… "havi… is th… you'd…
#>  5 i'm a… being… "that… "book… "- fr… "the … proba… "uhh.… you s…
#>  6 "i'm … "i'm … "the … "book… "guit… "a li… "hang… "i'm … "if y…
#>  7 "well… "well… "eith… "i do… "1) m… "the … "out … "i ow… "you …
#>  8 "i wo… "well… dimpl… "book… "1-la… "sex<… "depe… i lik… "you …
#>  9 photo… eatin… my gl… donni… sushi… love.  drink… hm...  .     
#> 10 "occu… "livi… long … "film… yuzu,… "menu… "ofte… but i… "you …
#> # ... with 740 more rows, and 9,256 more variables: tf_essay0______ <dbl>,
#> #   tf_essay0_______ <dbl>, tf_essay0________________________ <dbl>,
#> #   tf_essay0_____coming <dbl>, tf_essay0__blank <dbl>,
#> #   tf_essay0__updates_ <dbl>, tf_essay0_0 <dbl>, tf_essay0_01 <dbl>,
#> #   tf_essay0_0aare <dbl>, tf_essay0_0abilly <dbl>,
#> #   tf_essay0_0aboondocks <dbl>, tf_essay0_0abrothers <dbl>,
#> #   tf_essay0_0aconfidential <dbl>, tf_essay0_0aconversation <dbl>,
#> #   tf_essay0_0adebates <dbl>, tf_essay0_0afly <dbl>,
#> #   tf_essay0_0afriends <dbl>, tf_essay0_0agiants <dbl>, tf_essay0_0ahop <dbl>,
…
